.........
----------------------------------------------------------------------
Ran 9 tests in 0.001s

OK
Name               Stmts   Miss Branch BrPart  Cover   Missing
--------------------------------------------------------------
Diplomacy.py          83      0     56      0   100%
TestDiplomacy.py      51      0      0      0   100%
--------------------------------------------------------------
TOTAL                134      0     56      0   100%
