----------------------------------------------------------------------
Ran 5 tests in 0.002s

OK
Name               Stmts   Miss Branch BrPart  Cover   Missing
--------------------------------------------------------------
Diplomacy.py          45      0     28      0   100%
TestDiplomacy.py      29      0      0      0   100%
--------------------------------------------------------------
TOTAL                 74      0     28      0   100%
