..................
----------------------------------------------------------------------
Ran 18 tests in 0.000s

OK
Name               Stmts   Miss Branch BrPart  Cover   Missing
--------------------------------------------------------------
Diplomacy.py          82      0     46      0   100%
TestDiplomacy.py      87      0      2      1    99%   134->exit
--------------------------------------------------------------
TOTAL                169      0     48      1    99%
