..............
----------------------------------------------------------------------
Ran 14 tests in 0.004s

OK
Name               Stmts   Miss Branch BrPart  Cover   Missing
--------------------------------------------------------------
Diplomacy.py          69      0     42      0   100%
TestDiplomacy.py      63      0      0      0   100%
--------------------------------------------------------------
TOTAL                132      0     42      0   100%
